[
    {
        "date": "03/01/2023",
        "freq_max": 103,
        "distance": 770,
        "data": [
            {
                "altitude": 18,
                "latitude": 47.644794,
                "cardio_frequency": 99,
                "time": "13:00:00",
                "longitude": -2.776605
            },
            {
                "altitude": 18,
                "latitude": 47.64687,
                "cardio_frequency": 100,
                "time": "13:00:05",
                "longitude": -2.778911
            },
            {
                "altitude": 18,
                "latitude": 47.6462,
                "cardio_frequency": 102,
                "time": "13:00:10",
                "longitude": -2.78022
            }
        ],
        "freq_min": 98,
        "description": "IUT  RU"
    }
]
