[
    {
        "password": "pwd1",
        "email": "marlo@gmail.com",
        "username": "marlo"
    },
    {
        "password": "pwd2",
        "email": "lily@gmail.com",
        "username": "Lily"
    },
    {
        "password": "pwd3",
        "email": "evy@gmail.com",
        "username": "Evy"
    },
    {
        "password": "mdp1",
        "email": "user@user.fr",
        "username": "NewUser"
    },
    {
        "password": "Malo",
        "email": "malo@gmail.com",
        "username": "malo"
    },
    {
        "password": "Ewen",
        "email": "ewen@gmail.com",
        "username": "Ewen"
    },
    {
        "password": "user",
        "email": "user@user.com",
        "username": "newuserrr"
    },
    {
        "password": "gauthier",
        "email": "gauthierdev@gmail.com",
        "username": "gauthier"
    }
]